How to Bayes
…
[Massive Auditory Lexical Decision](https://aphl.artsrn.ualberta.ca/?page_id=827) (Tucker et al. 2019):

- **MALD data set**: 521 subjects, RTs and accuracy.

- Subset of MALD: 30 subjects, 100 observations each.

--

```r
mald
```

```
## # A tibble: 3,000 × 7
##    Subject Item         IsWord PhonLev    RT ACC   RT_log
##    <chr>   <chr>        <fct>    <dbl> <int> <lgl>  <dbl>
##  1 15345   nihnaxr      FALSE     5.84   945 TRUE    6.85
##  2 15345   skaep        FALSE     6.03  1046 FALSE   6.95
##  3 15345   grandparents TRUE     10.3    797 TRUE    6.68
##  4 15345   sehs         FALSE     5.88  2134 TRUE    7.67
##  5 15345   cousin       TRUE      5.78   597 TRUE    6.39
##  6 15345   blowup       TRUE      6.03   716 TRUE    6.57
##  7 15345   hhehrnzmaxn  FALSE     7.30  1985 TRUE    7.59
##  8 15345   mantic       TRUE      6.21  1591 TRUE    7.37
##  9 15345   notable      TRUE      6.82   620 TRUE    6.43
## 10 15345   prowthihviht FALSE     7.68  1205 TRUE    7.09
## # … with 2,990 more rows
```
…
